RT 24447126_e112_46c0_b8e2_0c673ec60bd8: 18e7a7c8_9207_4bca_a889_d9d891bf13f1 That CCK11 conversation got problematic, but here: http://blog.p2pfoundation.net/family-educator-commons/2010/08/09 2011-03-24T14:02:11Z
24447126_e112_46c0_b8e2_0c673ec60bd8 Very interesting-homeschool. CCK11 conversation got problematic. Would you mind sharing concerns? I didn't participate in FB 2011-03-24T14:00:30Z
RT 8046c796_752a_4e1d_908d_2fcfde1432f7: Does an Open Source Strategy Matter? Lessons Learned from the iLabs Project | Mendeley http://mnd.ly/hCNP1I, #CCK11, #PLEK12 , 6d8a6593_bf16_43a3_9b2f_2389d429ceac 2011-03-24T12:24:58Z
Does an Open Source Strategy Matter? Lessons Learned from the iLabs Project | Mendeley http://mnd.ly/hCNP1I, #CCK11, #PLEK12 , 6d8a6593_bf16_43a3_9b2f_2389d429ceac 2011-03-24T11:01:51Z
The World Is My School: Welcome to the Era of Personalized Learning | World Future Society http://t.co/8YOzeum, #CCK11, #PLEK12, 6d8a6593_bf16_43a3_9b2f_2389d429ceac 2011-03-24T10:42:08Z
http://j.mp/fwoRJO #edtech #edchat #nswdet #yam #CCK11 #elearning #technology #education #teachers 2011-03-24T10:41:38Z
Connectivism: 1. Knowledge is networked and distributed. (no one can build a plane alone) #dgd11 2011-03-24T09:27:19Z
RT fbab57b6_35da_49ca_853c_9297c873a550: RT 932c2aa8_72dd_402b_8707_82a4151891d6: New! Wkly enews: Creating Classroom Spaces That Work: http://bit.ly/aH5NfY #edchat #elemchat #edtech20 #CCK11 2011-03-24T06:42:57Z
Vygotsky, ZPD, Scaffolding, Connectivism and Personal Learning Networks http://bit.ly/hSCaAe #socialnetworking 2011-03-28T20:52:43Z
Connectivism - a learning theory http://en.m.wikipedia.org/wiki/Connectivism #satech #acpa11 2011-03-28T20:40:29Z
RT 91c39a48_5c60_4f3e_a280_6a81b15163e2: Special Issue - Connectivism: Design and Delivery of Social Networked Learning http://bit.ly/grAbWq #km 2011-03-28T21:58:27Z
connectivism as a learning theory reminds me of cognitive mapping in learning with hypertext. plausible. but empirically proved? 2011-03-28T21:57:46Z
RT 5940f9a6_6360_4479_ba73_8b39f013b0d2: Connectivism: Special IRRODL issue http://bit.ly/eGGORq by a0e5d383_c34f_4dd8_b34e_5d97c0f06e19 #elearning 2011-03-28T21:54:57Z
the renowned trade magazine IRRODL is dedicated to a complete Edition \"Connectivism\": http://bit.ly/fx7pUI 2011-03-28 21:42 T: 19t
RT 1e889d1e_3468_4839_8c53_d4d8f7081458: Another interest-building capacity for health promotion around mh using connectivism ideas ...SM in rural education settings 2011-03-28T21:35:32Z
RT c5774f7f_5456_4ead_b87c_cf77b022e80b: #Piccsy :: Image Bookmarking : #edtech20 #edtools | 3f655dea_32a7_4577_a56a_f64266bd52f5 http://t.co/h8mQPZz #edchat #elearning #ascd11 #CCK11 #lrnchat #efl #elt 2011-03-28T21:07:57Z
If you missed it, Special Issue on Connectivism from IRRODL - some great articles. http://www.irrodl.org/index.php/irrodl/issue/view/44 2011-03-28T17:08:59Z
Social Media & Education - Reasons to be Fearful by ddf18958fe378f7ac67647b406c6aec4 (CCK11 live chat) http://bit.ly/g4LBIi 2011-02-09T23:30:10
I finished the long reading of the enq. After you rich Playful connectivism: game design on the social web. Very good! 2/9/2011 T23: 21:28
#CCK11 Phronetic Social Science http://bit.ly/hldTDa 2011-02-09T23:15:06
#misdtcea connectivism is when learning is constructed with a social network. 2011-02-09T21:52:35
The #CCK11 Daily is out! http://bit.ly/e4FAOy ? Top stories today via 3fe2ceec_5062_44e9_a46d_e3f2b03bda55 553028f7_4320_461a_8042_5c9c91a6c412 8bbdccfa_fdb5_49fc_842f_dba6406ab758 39e79ae0_462b_4998_9e4a_d11cd3aedc45 2011-02-09T21:24:40
RT a0e5d383_c34f_4dd8_b34e_5d97c0f06e19: Recording from ddf18958fe378f7ac67647b406c6aec4 s presentation on social media and education: http://bit.ly/fjbKVi #CCK11 2011-02-09T18:55:00
RT 3fe2ceec_5062_44e9_a46d_e3f2b03bda55: Chat Transcript from Week4 of #CCK11: Although I haven't had time to be more engaged in #CCK11 the past three we... http://bit.ly/fdvgxC 2011-02-09T18:54:54
Chat Transcript from Week4 of #CCK11: Although I haven't had time to be more engaged in #CCK11 the past three we... http://bit.ly/fdvgxC 2011-02-09T18:53:48
New blog posting: Social Media & Education - Reasons to be Fearful by ddf18958fe378f7ac67647b406c6aec4 (CCK11 live chat) - http://bit.ly/ifFHne 2011-02-09T18:33:48
Worth an hour of your time. RT a0e5d383_c34f_4dd8_b34e_5d97c0f06e19 Recording from ddf18958fe378f7ac67647b406c6aec4 s presentation on social media & education: http://bit.ly/fjbKVi #CCK11 2011-02-09T20:26:22
Brilliant, fantastic post! RT 53c4274d_4d9f_43c4_a5f8_fb89f0a7fd35: Teaching Poetry Well: The Connectivism Way #edchat #CCK11 #ELTchat: http://t.co/a4hmGx0 2011-02-11T16:01:50
Teaching Poetry Well: The Connectivism Way #education #edchat #ukedchat #elearning #esl #TESOL #CCK11 #ELTchat: http://t.co/a4hmGx0 2011-02-11T15:25:49
RT 9499cf49_ad38_4b4e_933d_e12a7ced9a01: via 53c4274d_4d9f_43c4_a5f8_fb89f0a7fd35 Teaching Reading and Reading Well: The Connectivism Way #CCK11 #ELTchat http://bit.ly/gKCHaD #edchat 2011-02-11T08:50:43
0806c6f2_c7d6_48b1_be41_07b07b4c398a Other than dont get carried away with new tech (do #CCK11 people?) what did he say? Assertions. We dont use tech in OCM & PAH 2011-02-11T08:13:23
RT 53c4274d_4d9f_43c4_a5f8_fb89f0a7fd35: Teaching Writing and Writing Well: The Connectivism Way #CCK11 #ELTchat http://nblo.gs/e8MtS... http://bit.ly/hq1Bm2 2011-02-11T04:32:30
RT 0806c6f2_c7d6_48b1_be41_07b07b4c398a: listening to Recording from Neil #Selwyn s presentation on social media and education: http://bit.ly/fjbKVi #CCK11 2011-02-10T23:34:31
RT 9c43086d_821a_4cd4_8735_bd12be1851e8: New blog post:How I Learned to Stop Worrying and Love the Conversation: http://j.mp/fw9CmT #CCK11 #edchat #naisac11 #riusal11 2011-02-14T10:08:37
We really are! #RIUSAL11 a20f7c70_be1f_47d9_bc36_842318dcdbf4:Hey, #CCK11, check out my new post: Con sabor educativo: We are all connected http://t.co/gNoHTyA 2011-02-14T09:58:00
RT 53c4274d_4d9f_43c4_a5f8_fb89f0a7fd35: 17c7c375ff5948829f5e47e4c1c888e7, Four Skills Connectivism Lesson #CCK11 #ELTchat #edchat #ekedchat http://wp.me/pdHW0-mc 2011-02-14T06:20:35
Wayne Rooney Connects With Wonder Goal #ELTChat #edchat #ukedchat #CCK11 http://nblo.gs/efCDn 2011-02-14T05:33:38
RT 9499cf49_ad38_4b4e_933d_e12a7ced9a01: via 53c4274d_4d9f_43c4_a5f8_fb89f0a7fd35 Goal 9: Make a Global Connection: Connectivism in Practice #30Goals #CCK11 #ELTchat ... http://bit.ly/g5u7iu #edchat 2011-02-14T03:38:11
RT 668282cb_a8a5_4ca4_96cf_5f2bfd3d9edc webcasting a major edu conference for free Tuesday to Friday. http://bit.ly/eQ2UDp #PLENK2010 #CCK11 #bookhenge 2011-02-14T03:19:59
Goal 9: Make a Global Connection: Connectivism in Practice #30Goals #CCK11 #ELTchat #edchat #ukedchat #elearning #ed... http://nblo.gs/efnFi 2011-02-14T02:52:18
RT 82c737dc_61ec_4536_87f4_83a54318a505: Edu cannot be Euro-Anglo-Occident-centric. We need pedagogy that accounts for international networks of learners. #connectivism #CCK11 2011-02-14T01:09:34
Edu cannot be Euro-Anglo-Occident-centric. We need pedagogy that accounts for international networks of learners. #connectivism #CCK11 2011-02-14T00:43:33
Hey, #CCK11, check out my new post: Con sabor educativo: We are all connected http://t.co/gNoHTyA 2011-02-13T23:50:00
RT 9499cf49_ad38_4b4e_933d_e12a7ced9a01: via 53c4274d_4d9f_43c4_a5f8_fb89f0a7fd35 What if Doctors Were Treated Like Teachers? http://bit.ly/g33ekK 2011-02-13T23:49:21
CCK11 Connectivism - theory and practice reflection http://wp.me/pkZnI-29u 2011-02-13T23:29:41
RT c5774f7f_5456_4ead_b87c_cf77b022e80b: 5 Different Ways To Generate Ideas Using Brainstorming Apps via 6aeb3f38_a77f_47c2_9b4e_61fdba8b4914 #edtech20 #edchat #lrnchat #elearning http://t.co/52PdPlD #CCK11 2011-02-13T22:23:29
Some practical implications - #CCK11: Teaching Teaching the Connectivist Way http://bit.ly/ibzjZ5 2011-02-13T22:00:28
Thomas Reply to Valeria: An Open Letter - Regarding Teaching and the Black Male Teacher #CCK11 #ELTchat #edchat #u.. http://safe.mn/2xHG 2011-02-15T07:08:14
Does anyone know of any good information/knowledge mgmt approached that tie well with constructivism or connectivism? #infomgmt #km #lrng 2011-03-07T02:35:12
3394f438_88f3_4767_a725_f5b37dd56657 It s another piece of the puzzle I've been thinking about though. Makes a lot of sense. Have you seen http://cck11.mooc.ca re PLN 2011-03-07T02:05:06